[
  {
    "text": "Danke, das reicht mir!",
    "entities": [],
    "predicted_entities": [
      {
        "entity": "last_name",
        "start": 11,
        "end": 17,
        "confidence_entity": 0.6547226905822754,
        "value": "reicht",
        "extractor": "DIETClassifier"
      }
    ]
  },
  {
    "text": "Ok, das reicht mir!",
    "entities": [],
    "predicted_entities": [
      {
        "entity": "last_name",
        "start": 8,
        "end": 14,
        "confidence_entity": 0.6420854330062866,
        "value": "reicht",
        "extractor": "DIETClassifier"
      }
    ]
  },
  {
    "text": "Wie erreiche ich die meinen Oberarzt in der Psychosomatik?",
    "entities": [
      {
        "start": 28,
        "end": 36,
        "value": "Oberarzt",
        "entity": "role"
      },
      {
        "start": 44,
        "end": 57,
        "value": "Psychosomatik",
        "entity": "team"
      }
    ],
    "predicted_entities": [
      {
        "entity": "role",
        "start": 28,
        "end": 36,
        "confidence_entity": 0.999275267124176,
        "value": "Oberarzt/-ärztin",
        "extractor": "DIETClassifier",
        "processors": [
          "EntitySynonymMapper"
        ]
      }
    ]
  },
  {
    "text": "Wie erreiche ich den Arzt in der PS 1?",
    "entities": [
      {
        "start": 21,
        "end": 25,
        "value": "Arzt",
        "entity": "role"
      },
      {
        "start": 33,
        "end": 37,
        "value": "PS 1",
        "entity": "team"
      }
    ],
    "predicted_entities": [
      {
        "entity": "role",
        "start": 21,
        "end": 25,
        "confidence_entity": 0.9988927245140076,
        "value": "Arzt",
        "extractor": "DIETClassifier"
      },
      {
        "entity": "team",
        "start": 33,
        "end": 35,
        "confidence_entity": 0.9728303551673889,
        "value": "PS",
        "extractor": "DIETClassifier"
      }
    ]
  }
]